2
2
600
19.0	49.0	2
13.0	96.0	2
64.0	63.0	2
77.0	84.0	1
98.0	3.0	1
49.0	11.0	2
34.0	96.0	1
87.0	83.0	1
53.0	55.0	1
30.0	71.0	1
10.0	19.0	2
13.0	10.0	2
81.0	21.0	1
12.0	97.0	1
76.0	57.0	1
47.0	61.0	2
40.0	95.0	1
10.0	34.0	1
65.0	33.0	1
11.0	12.0	2
28.0	97.0	2
21.0	52.0	1
35.0	66.0	1
26.0	15.0	1
73.0	99.0	2
96.0	56.0	1
5.0	97.0	1
56.0	85.0	2
48.0	14.0	2
71.0	94.0	1
48.0	24.0	1
87.0	54.0	2
84.0	58.0	2
12.0	55.0	2
72.0	36.0	1
37.0	21.0	2
86.0	58.0	2
89.0	92.0	2
36.0	96.0	1
12.0	2.0	1
60.0	37.0	2
97.0	51.0	1
57.0	22.0	1
23.0	28.0	2
30.0	86.0	1
24.0	75.0	2
87.0	95.0	2
15.0	44.0	2
43.0	96.0	1
14.0	29.0	1
30.0	31.0	1
39.0	77.0	1
18.0	44.0	2
11.0	26.0	1
91.0	76.0	1
99.0	98.0	1
92.0	82.0	2
77.0	16.0	1
81.0	18.0	1
74.0	22.0	2
47.0	73.0	1
30.0	50.0	1
58.0	47.0	1
87.0	3.0	2
13.0	58.0	2
19.0	79.0	1
58.0	47.0	1
97.0	75.0	2
71.0	98.0	2
26.0	89.0	1
93.0	91.0	2
11.0	18.0	2
29.0	71.0	1
27.0	73.0	2
13.0	0.0	1
100.0	87.0	1
82.0	7.0	2
76.0	6.0	2
75.0	92.0	1
61.0	28.0	1
27.0	14.0	1
96.0	35.0	1
48.0	90.0	1
27.0	99.0	2
43.0	95.0	1
44.0	79.0	1
11.0	47.0	2
54.0	73.0	1
23.0	1.0	2
69.0	32.0	1
57.0	24.0	1
39.0	70.0	1
90.0	15.0	2
76.0	20.0	2
52.0	44.0	1
88.0	22.0	1
75.0	0.0	2
96.0	29.0	2
32.0	5.0	1
15.0	5.0	2
15.0	49.0	2
55.0	55.0	1
36.0	72.0	1
21.0	21.0	1
41.0	78.0	1
65.0	7.0	1
8.0	61.0	1
83.0	62.0	2
98.0	68.0	2
39.0	48.0	2
79.0	12.0	1
3.0	13.0	2
57.0	12.0	2
57.0	57.0	1
12.0	89.0	2
63.0	31.0	1
34.0	17.0	2
7.0	87.0	2
25.0	35.0	1
21.0	64.0	2
36.0	85.0	2
85.0	59.0	2
19.0	87.0	1
88.0	72.0	1
44.0	31.0	2
51.0	76.0	1
65.0	77.0	2
85.0	64.0	2
45.0	11.0	2
6.0	54.0	1
96.0	79.0	2
64.0	52.0	2
57.0	86.0	2
26.0	6.0	2
70.0	63.0	1
29.0	68.0	1
98.0	37.0	1
93.0	91.0	2
5.0	53.0	1
20.0	74.0	2
56.0	92.0	1
95.0	99.0	1
93.0	3.0	1
68.0	42.0	2
28.0	29.0	2
14.0	27.0	1
31.0	19.0	2
52.0	67.0	2
38.0	62.0	2
25.0	17.0	1
75.0	99.0	2
85.0	61.0	2
2.0	90.0	1
56.0	2.0	1
88.0	48.0	2
70.0	25.0	2
39.0	57.0	2
71.0	61.0	1
82.0	94.0	2
13.0	45.0	2
92.0	46.0	1
41.0	14.0	2
0.0	10.0	1
26.0	75.0	2
63.0	72.0	1
3.0	43.0	1
79.0	87.0	1
36.0	22.0	2
94.0	37.0	1
66.0	14.0	2
93.0	42.0	1
92.0	19.0	2
78.0	89.0	1
89.0	23.0	1
97.0	73.0	2
54.0	5.0	1
37.0	73.0	1
70.0	27.0	2
39.0	24.0	1
29.0	61.0	1
96.0	25.0	2
100.0	38.0	2
41.0	40.0	2
6.0	99.0	1
83.0	96.0	2
82.0	7.0	2
10.0	55.0	1
45.0	23.0	1
67.0	57.0	2
6.0	96.0	1
9.0	73.0	1
72.0	63.0	1
46.0	26.0	1
9.0	59.0	1
34.0	48.0	2
77.0	49.0	1
90.0	53.0	1
53.0	85.0	2
70.0	43.0	1
60.0	79.0	2
63.0	93.0	1
25.0	81.0	2
67.0	94.0	1
90.0	31.0	1
67.0	40.0	2
28.0	22.0	2
4.0	40.0	1
16.0	39.0	2
48.0	31.0	2
90.0	39.0	1
11.0	32.0	1
55.0	32.0	2
96.0	36.0	1
79.0	98.0	2
64.0	44.0	2
36.0	6.0	1
15.0	54.0	2
19.0	35.0	2
29.0	33.0	1
22.0	81.0	1
76.0	44.0	1
16.0	33.0	2
86.0	13.0	2
77.0	74.0	2
36.0	69.0	1
40.0	45.0	2
11.0	87.0	2
69.0	29.0	1
79.0	13.0	1
73.0	83.0	1
84.0	88.0	2
60.0	4.0	1
7.0	71.0	1
22.0	62.0	2
36.0	30.0	1
0.0	21.0	2
98.0	74.0	2
27.0	71.0	2
91.0	39.0	1
34.0	41.0	2
80.0	78.0	1
52.0	16.0	2
46.0	7.0	1
6.0	98.0	1
0.0	18.0	2
75.0	13.0	1
22.0	10.0	1
40.0	77.0	1
43.0	70.0	1
45.0	12.0	2
35.0	38.0	2
88.0	66.0	1
95.0	63.0	1
97.0	69.0	2
67.0	80.0	2
32.0	10.0	1
21.0	58.0	2
18.0	73.0	2
100.0	73.0	2
91.0	56.0	1
27.0	22.0	2
10.0	39.0	1
24.0	86.0	1
42.0	60.0	2
5.0	91.0	1
32.0	35.0	1
40.0	56.0	2
29.0	19.0	2
59.0	0.0	2
73.0	31.0	1
92.0	67.0	1
56.0	43.0	1
52.0	69.0	2
3.0	53.0	1
97.0	68.0	2
44.0	50.0	1
99.0	30.0	2
66.0	53.0	2
36.0	45.0	2
81.0	26.0	2
48.0	42.0	1
66.0	36.0	1
56.0	54.0	1
49.0	55.0	1
99.0	22.0	2
65.0	67.0	1
20.0	29.0	2
74.0	62.0	1
95.0	8.0	1
16.0	72.0	1
94.0	100.0	1
22.0	7.0	2
8.0	71.0	1
7.0	12.0	2
99.0	47.0	1
77.0	4.0	2
75.0	4.0	2
42.0	30.0	1
77.0	96.0	2
37.0	30.0	1
23.0	17.0	1
89.0	75.0	1
17.0	1.0	2
0.0	24.0	2
19.0	49.0	2
68.0	100.0	2
52.0	58.0	1
72.0	21.0	2
41.0	77.0	1
78.0	35.0	2
11.0	39.0	1
49.0	73.0	1
48.0	67.0	2
9.0	94.0	1
55.0	66.0	2
56.0	11.0	2
52.0	99.0	1
59.0	10.0	1
14.0	22.0	1
97.0	10.0	1
62.0	68.0	1
54.0	68.0	2
42.0	51.0	1
63.0	66.0	1
62.0	75.0	1
83.0	62.0	2
55.0	47.0	1
22.0	76.0	2
79.0	27.0	2
46.0	3.0	1
41.0	10.0	1
28.0	4.0	2
0.0	84.0	1
28.0	63.0	1
18.0	8.0	2
30.0	76.0	2
29.0	68.0	1
53.0	11.0	2
44.0	75.0	1
57.0	50.0	1
39.0	99.0	2
21.0	44.0	1
38.0	86.0	2
90.0	85.0	2
74.0	36.0	1
31.0	2.0	2
47.0	5.0	1
70.0	52.0	1
66.0	34.0	1
53.0	77.0	1
62.0	35.0	2
92.0	23.0	1
52.0	5.0	1
91.0	46.0	1
78.0	73.0	2
25.0	27.0	2
22.0	32.0	2
74.0	68.0	2
78.0	64.0	2
11.0	18.0	2
81.0	1.0	2
87.0	23.0	1
60.0	52.0	2
73.0	31.0	1
36.0	39.0	2
16.0	55.0	2
36.0	80.0	2
5.0	33.0	1
28.0	79.0	2
25.0	13.0	1
99.0	16.0	2
8.0	16.0	2
52.0	40.0	2
15.0	1.0	1
92.0	86.0	2
74.0	57.0	1
47.0	59.0	1
32.0	14.0	1
94.0	43.0	1
17.0	86.0	1
68.0	86.0	1
68.0	22.0	2
79.0	16.0	1
4.0	63.0	1
80.0	75.0	2
34.0	21.0	2
67.0	29.0	1
92.0	13.0	2
89.0	26.0	1
23.0	53.0	1
74.0	33.0	1
77.0	1.0	2
33.0	72.0	1
86.0	26.0	1
88.0	73.0	1
32.0	61.0	1
85.0	83.0	1
13.0	47.0	2
98.0	52.0	1
63.0	17.0	2
77.0	68.0	2
52.0	99.0	1
37.0	75.0	1
62.0	51.0	2
61.0	75.0	1
82.0	69.0	2
59.0	43.0	2
98.0	73.0	2
82.0	64.0	2
99.0	20.0	2
22.0	69.0	2
59.0	45.0	2
69.0	76.0	2
24.0	66.0	2
83.0	34.0	2
93.0	41.0	1
43.0	72.0	1
32.0	25.0	2
95.0	90.0	1
84.0	47.0	2
81.0	88.0	1
46.0	48.0	1
0.0	49.0	2
43.0	45.0	1
72.0	43.0	1
59.0	13.0	2
1.0	68.0	2
47.0	59.0	1
32.0	97.0	2
100.0	3.0	1
36.0	64.0	2
85.0	65.0	2
6.0	60.0	1
62.0	14.0	2
59.0	67.0	2
43.0	57.0	1
18.0	28.0	2
94.0	55.0	1
17.0	37.0	2
82.0	95.0	2
46.0	91.0	1
75.0	40.0	1
38.0	11.0	1
16.0	0.0	1
45.0	60.0	2
49.0	10.0	1
60.0	40.0	2
92.0	16.0	2
58.0	7.0	1
26.0	74.0	2
21.0	66.0	2
44.0	18.0	2
89.0	38.0	1
53.0	13.0	2
5.0	99.0	1
44.0	67.0	2
78.0	93.0	2
87.0	8.0	2
59.0	76.0	1
67.0	87.0	1
4.0	99.0	1
29.0	45.0	1
48.0	64.0	2
58.0	25.0	1
6.0	52.0	1
58.0	10.0	1
63.0	23.0	1
69.0	9.0	1
69.0	38.0	1
92.0	61.0	1
79.0	60.0	2
3.0	64.0	1
88.0	42.0	2
57.0	16.0	2
85.0	74.0	1
97.0	0.0	1
71.0	41.0	1
69.0	26.0	2
24.0	68.0	2
10.0	1.0	1
87.0	55.0	2
50.0	5.0	1
38.0	53.0	2
85.0	17.0	1
97.0	36.0	1
99.0	43.0	1
75.0	0.0	2
37.0	17.0	2
2.0	33.0	2
42.0	23.0	1
12.0	27.0	1
64.0	89.0	1
44.0	36.0	2
23.0	4.0	2
14.0	50.0	2
49.0	9.0	1
2.0	20.0	2
80.0	11.0	1
8.0	21.0	2
84.0	72.0	1
33.0	13.0	1
4.0	79.0	2
47.0	70.0	1
58.0	89.0	2
97.0	56.0	1
21.0	30.0	2
19.0	16.0	1
60.0	57.0	2
62.0	20.0	2
98.0	12.0	1
70.0	60.0	1
81.0	61.0	2
69.0	50.0	2
25.0	30.0	2
58.0	84.0	2
51.0	83.0	2
32.0	28.0	1
33.0	74.0	1
43.0	60.0	2
10.0	98.0	1
50.0	4.0	1
85.0	58.0	2
27.0	55.0	1
41.0	79.0	2
54.0	73.0	1
94.0	30.0	1
81.0	11.0	1
73.0	54.0	1
46.0	97.0	1
19.0	37.0	2
53.0	8.0	1
91.0	52.0	1
33.0	67.0	1
57.0	6.0	1
41.0	31.0	1
46.0	15.0	2
31.0	23.0	2
80.0	37.0	2
69.0	49.0	2
97.0	49.0	1
69.0	98.0	2
16.0	19.0	1
89.0	66.0	1
46.0	42.0	1
5.0	19.0	2
89.0	23.0	1
58.0	75.0	1
87.0	40.0	2
80.0	45.0	2
96.0	8.0	1
42.0	35.0	2
76.0	51.0	1
89.0	88.0	2
58.0	51.0	1
3.0	44.0	1
37.0	35.0	2
92.0	95.0	1
49.0	82.0	2
87.0	85.0	2
10.0	88.0	2
14.0	71.0	1
18.0	84.0	1
57.0	70.0	1
17.0	88.0	2
34.0	33.0	1
68.0	73.0	1
79.0	28.0	2
21.0	68.0	2
43.0	20.0	2
7.0	44.0	1
44.0	24.0	1
24.0	49.0	1
33.0	64.0	1
70.0	70.0	1
18.0	84.0	1
54.0	47.0	1
30.0	68.0	1
94.0	51.0	1
28.0	5.0	2
51.0	88.0	2
98.0	99.0	1
61.0	10.0	1
56.0	77.0	1
67.0	75.0	2
47.0	33.0	2
3.0	65.0	1
40.0	50.0	2
88.0	29.0	1
95.0	2.0	1
35.0	40.0	2
60.0	35.0	2
60.0	63.0	2
74.0	77.0	2
24.0	80.0	2
96.0	39.0	1
51.0	85.0	2
66.0	32.0	1
36.0	86.0	2
80.0	1.0	2
3.0	41.0	1
