8
10
297
0.53	0.59	0.48	0.14	0.5	0.0	0.51	0.22	3
0.56	0.35	0.47	0.35	0.5	0.0	0.52	0.22	3
0.68	0.59	0.44	0.49	0.5	0.0	0.4	0.26	9
0.66	0.54	0.49	0.16	0.5	0.0	0.54	0.36	2
0.49	0.47	0.52	0.16	0.5	0.0	0.53	0.28	3
0.43	0.38	0.51	0.24	0.5	0.0	0.46	0.33	2
0.31	0.31	0.56	0.33	0.5	0.0	0.52	0.33	2
0.61	0.57	0.45	0.21	0.5	0.0	0.5	0.42	2
0.58	0.76	0.4	0.37	0.5	0.0	0.54	0.3	6
0.38	0.54	0.54	0.41	0.5	0.0	0.51	0.22	1
0.5	0.5	0.48	0.34	0.5	0.0	0.52	0.27	2
0.72	0.58	0.42	0.28	0.5	0.0	0.48	0.22	1
0.48	0.45	0.63	0.19	0.5	0.0	0.58	0.22	2
0.48	0.42	0.48	0.19	0.5	0.0	0.58	0.22	3
0.29	0.4	0.5	0.16	0.5	0.0	0.51	0.34	2
0.5	0.64	0.57	0.15	0.5	0.0	0.47	0.22	3
0.37	0.62	0.34	0.25	0.5	0.0	0.51	0.22	7
0.32	0.68	0.51	0.16	0.5	0.83	0.55	0.22	9
0.48	0.57	0.5	0.09	0.5	0.0	0.52	0.42	2
0.28	0.37	0.61	0.09	0.5	0.0	0.52	0.55	2
0.6	0.68	0.3	0.27	0.5	0.0	0.55	0.22	7
0.49	0.46	0.45	0.45	0.5	0.0	0.52	0.22	1
0.47	0.58	0.47	0.52	0.5	0.0	0.54	0.22	1
0.4	0.45	0.45	0.15	0.5	0.0	0.53	0.48	2
0.45	0.54	0.49	0.29	0.5	0.0	0.49	0.25	2
0.64	0.53	0.45	0.13	0.5	0.0	0.53	0.22	3
0.52	0.54	0.47	0.49	0.5	0.0	0.54	0.22	1
0.54	0.48	0.44	0.08	0.5	0.0	0.52	0.27	3
0.57	0.35	0.5	0.43	0.5	0.0	0.53	0.22	3
0.88	0.72	0.32	0.3	0.5	0.0	0.52	0.33	4
0.49	0.49	0.52	0.18	0.5	0.0	0.51	0.25	2
0.61	0.72	0.39	0.33	0.5	0.0	0.58	0.22	1
0.56	0.71	0.47	0.21	0.5	0.0	0.52	0.22	1
0.69	0.54	0.55	0.23	0.5	0.0	0.73	0.22	3
0.49	0.62	0.65	0.18	0.5	0.0	0.46	0.43	2
0.4	0.44	0.5	0.13	0.5	0.0	0.52	0.39	3
0.69	0.57	0.39	0.19	0.5	0.0	0.48	0.39	6
0.32	0.45	0.39	0.14	0.5	0.0	0.45	0.22	7
0.25	0.36	0.58	0.3	0.5	0.0	0.58	0.31	2
0.49	0.6	0.42	0.18	0.5	0.0	0.58	0.28	2
0.34	0.47	0.48	0.32	0.5	0.0	0.42	0.22	2
0.59	0.64	0.44	0.26	0.5	0.0	0.5	0.22	3
0.79	0.74	0.49	0.33	0.5	0.0	0.48	0.22	5
0.42	0.5	0.64	0.13	0.5	0.0	0.49	0.22	3
0.6	0.57	0.64	0.52	0.5	0.0	0.47	0.28	1
0.41	0.4	0.56	0.17	0.5	0.0	0.56	0.22	3
0.55	0.46	0.46	0.31	0.5	0.0	0.58	0.48	2
0.51	0.43	0.47	0.19	0.5	0.0	0.52	0.37	3
0.55	0.5	0.6	0.31	0.5	0.0	0.46	0.27	1
0.77	0.74	0.37	0.29	0.5	0.0	0.45	0.22	4
0.56	0.49	0.32	0.22	0.5	0.0	0.5	0.22	6
0.38	0.42	0.5	0.19	0.5	0.0	0.44	0.22	3
0.58	0.57	0.54	0.69	0.5	0.0	0.54	0.22	1
0.42	0.5	0.53	0.22	0.5	0.83	0.5	0.22	9
0.63	0.47	0.56	0.12	0.5	0.0	0.5	0.22	1
0.48	0.39	0.49	0.18	0.5	0.0	0.51	0.22	3
0.57	0.61	0.45	0.26	0.5	0.0	0.5	0.22	3
0.41	0.41	0.51	0.19	0.5	0.0	0.57	0.22	1
0.48	0.54	0.56	0.29	0.5	0.0	0.51	0.43	2
0.34	0.34	0.65	0.4	0.5	0.0	0.32	0.16	3
0.64	0.76	0.51	0.18	0.5	0.0	0.46	0.22	2
0.36	0.68	0.46	0.16	0.5	0.0	0.53	0.28	2
0.47	0.56	0.58	0.19	0.5	0.0	0.44	0.64	3
0.5	0.46	0.64	0.36	0.5	0.0	0.49	0.22	1
1.0	0.8	0.29	0.36	0.5	0.0	0.52	0.22	4
0.3	0.68	0.41	0.17	0.5	0.0	0.51	0.22	7
0.52	0.65	0.36	0.26	0.5	0.0	0.44	0.22	7
0.57	0.6	0.54	0.17	0.5	0.0	0.52	0.22	1
0.5	0.45	0.49	0.3	0.5	0.0	0.47	0.4	2
0.52	0.47	0.58	0.18	0.5	0.0	0.34	0.11	3
0.47	0.32	0.51	0.24	0.5	0.0	0.54	0.27	2
0.51	0.46	0.4	0.65	0.5	0.0	0.49	0.22	1
0.45	0.41	0.53	0.49	0.5	0.0	0.49	0.31	2
0.65	0.54	0.54	0.13	0.5	0.0	0.53	0.22	3
0.6	0.46	0.59	0.16	0.5	0.0	0.49	0.22	1
0.49	0.44	0.45	0.55	0.5	0.0	0.48	0.22	1
0.35	0.39	0.57	0.11	0.5	0.0	0.48	0.22	2
0.38	0.49	0.53	0.19	0.5	0.0	0.5	0.22	3
0.41	0.39	0.51	0.52	0.5	0.0	0.49	0.22	3
0.41	0.46	0.57	0.25	0.5	0.0	0.57	0.38	3
0.39	0.42	0.38	0.4	0.5	0.0	0.49	0.47	7
0.43	0.22	0.79	0.79	0.5	0.0	0.22	0.0	3
0.38	0.51	0.56	0.21	0.5	0.0	0.48	0.31	2
0.37	0.32	0.47	0.18	0.5	0.0	0.45	0.25	2
0.68	0.53	0.44	0.31	0.5	0.0	0.51	0.22	1
0.48	0.44	0.46	0.37	0.5	0.0	0.46	0.36	3
0.54	0.38	0.52	0.18	0.5	0.0	0.48	0.22	3
0.43	0.41	0.37	0.18	0.5	0.0	0.54	0.31	7
0.39	0.65	0.57	0.19	0.5	0.0	0.43	0.25	3
0.54	0.67	0.56	0.15	0.5	0.0	0.57	0.33	2
0.45	0.38	0.59	0.18	0.5	0.0	0.44	0.45	2
0.54	0.5	0.51	0.26	0.5	0.0	0.52	0.22	3
0.44	0.38	0.48	0.32	0.5	0.83	0.53	0.22	9
0.4	0.75	0.44	0.12	0.5	0.0	0.49	0.22	2
0.42	0.58	0.41	0.65	0.5	0.0	0.46	0.26	1
0.42	0.45	0.75	0.21	0.5	0.0	0.48	0.22	3
0.74	0.53	0.5	0.08	0.5	0.0	0.55	0.31	3
0.63	0.67	0.57	0.24	0.5	0.0	0.49	0.22	1
0.62	0.6	0.47	0.16	0.5	0.0	0.53	0.22	3
0.5	0.52	0.6	0.51	0.5	0.0	0.48	0.22	1
0.55	0.41	0.67	0.61	0.5	0.0	0.49	0.14	1
0.51	0.5	0.54	0.11	0.5	0.0	0.6	0.22	2
0.45	0.56	0.49	0.17	0.5	0.0	0.52	0.22	3
0.28	0.48	0.36	0.16	0.5	0.0	0.53	0.22	7
0.53	0.48	0.51	0.18	0.5	0.0	0.51	0.27	3
0.54	0.51	0.56	0.15	0.5	0.0	0.54	0.31	3
0.69	0.66	0.36	0.09	0.5	0.0	0.56	0.22	4
0.51	0.56	0.62	0.24	0.5	0.0	0.52	0.51	2
0.4	0.65	0.38	0.17	0.5	0.0	0.57	0.22	7
0.48	0.46	0.58	0.16	0.5	0.0	0.45	0.22	3
0.39	0.55	0.48	0.31	0.5	0.0	0.54	0.29	3
0.61	0.53	0.59	0.17	0.5	0.0	0.44	0.28	3
0.53	0.52	0.49	0.27	0.5	0.0	0.51	0.22	3
0.34	0.54	0.54	0.13	0.5	0.0	0.52	0.22	3
0.49	0.46	0.54	0.18	0.5	0.0	0.35	0.22	3
0.35	0.4	0.59	0.22	0.5	0.0	0.47	0.37	2
0.38	0.67	0.33	0.17	0.5	0.0	0.51	0.22	7
0.5	0.42	0.57	0.49	0.5	0.0	0.48	0.27	2
0.44	0.53	0.53	0.37	0.5	0.0	0.51	0.22	1
0.23	0.34	0.41	0.28	0.5	0.0	0.5	0.27	2
0.35	0.45	0.43	0.11	0.5	0.0	0.56	0.22	7
0.43	0.38	0.38	0.12	0.5	0.0	0.5	0.22	6
0.52	0.51	0.51	0.54	0.5	0.0	0.55	0.27	1
0.68	0.39	0.5	0.15	0.5	0.0	0.48	0.37	2
0.43	0.48	0.53	0.18	0.5	0.0	0.46	0.22	2
0.53	0.61	0.51	0.49	0.5	0.0	0.54	0.27	1
0.49	0.45	0.46	0.18	0.5	0.0	0.49	0.31	3
0.43	0.67	0.48	0.27	0.5	0.0	0.53	0.22	1
0.5	0.46	0.49	0.27	0.5	0.0	0.6	0.22	3
0.6	0.57	0.63	0.22	0.5	0.0	0.5	0.49	2
0.57	0.43	0.52	0.3	0.5	0.0	0.37	0.11	3
0.47	0.41	0.46	0.18	0.5	0.0	0.53	0.22	7
0.42	0.24	0.34	0.16	0.5	0.0	0.5	0.22	7
0.55	0.53	0.54	0.4	0.5	0.0	0.48	0.22	1
0.54	0.49	0.49	0.2	0.5	0.0	0.52	0.22	3
0.25	0.48	0.45	0.32	0.5	0.0	0.4	0.22	3
0.69	0.62	0.49	0.0	1.0	0.0	0.47	0.22	2
0.78	0.63	0.53	0.13	0.5	0.0	0.54	0.22	6
0.59	0.55	0.57	0.18	0.5	0.0	0.51	0.22	3
0.33	0.49	0.46	0.22	0.5	0.0	0.53	0.33	7
0.4	0.45	0.56	0.2	0.5	0.0	0.45	0.22	3
0.6	0.4	0.52	0.46	0.5	0.0	0.53	0.22	1
0.5	0.36	0.64	0.37	0.5	0.0	0.37	0.33	2
0.56	0.52	0.55	0.19	0.5	0.0	0.54	0.22	3
0.49	0.39	0.52	0.29	0.5	0.0	0.48	0.22	5
0.4	0.28	0.48	0.06	0.5	0.0	0.49	0.42	2
0.51	0.38	0.42	0.21	0.5	0.0	0.46	0.34	7
0.48	0.48	0.5	0.47	0.5	0.0	0.55	0.22	1
0.37	0.3	0.51	0.15	0.5	0.0	0.58	0.26	2
0.25	0.4	0.51	0.18	0.5	0.0	0.5	0.27	3
0.44	0.41	0.29	0.21	0.5	0.0	0.49	0.22	7
0.44	0.36	0.64	0.45	0.5	0.0	0.53	0.11	3
0.67	0.46	0.58	0.3	0.5	0.0	0.57	0.27	2
0.41	0.54	0.39	0.2	0.5	0.0	0.51	0.22	7
0.8	0.81	0.55	0.35	0.5	0.0	0.42	0.22	5
0.54	0.56	0.57	0.18	0.5	0.0	0.45	0.25	2
0.45	0.48	0.56	0.56	0.5	0.0	0.47	0.22	2
0.8	0.63	0.45	0.29	0.5	0.0	0.51	0.22	5
0.5	0.45	0.51	0.19	0.5	0.0	0.53	0.25	3
0.42	0.51	0.39	0.22	0.5	0.0	0.49	0.26	7
0.49	0.45	0.54	0.4	0.5	0.0	0.55	0.22	1
0.5	0.49	0.59	0.47	0.5	0.0	0.49	0.36	1
0.59	0.48	0.5	0.14	0.5	0.0	0.45	0.25	3
0.51	0.48	0.51	0.26	0.5	0.0	0.51	0.27	3
0.46	0.42	0.51	0.16	0.5	0.0	0.56	0.22	3
0.41	0.52	0.41	0.11	0.5	0.0	0.54	0.35	3
0.53	0.44	0.47	0.22	0.5	0.0	0.53	0.22	2
0.59	0.58	0.46	0.19	0.5	0.0	0.56	0.27	3
0.55	0.49	0.6	0.18	0.5	0.0	0.51	0.22	2
0.5	0.45	0.49	0.15	0.5	0.0	0.55	0.43	2
0.46	0.62	0.54	0.25	0.5	0.0	0.46	0.22	3
0.45	0.76	0.51	0.25	0.5	0.0	0.59	0.22	3
0.29	0.32	0.58	0.15	0.5	0.0	0.5	0.3	3
0.64	0.44	0.51	0.35	0.5	0.0	0.53	0.22	3
0.28	0.27	0.5	0.14	0.5	0.0	0.5	0.28	3
0.77	0.73	0.49	0.46	0.5	0.0	0.38	0.22	5
0.4	0.52	0.53	0.52	0.5	0.0	0.51	0.22	1
0.56	0.59	0.45	0.15	0.5	0.0	0.54	0.22	1
0.59	0.51	0.47	0.21	0.5	0.0	0.47	0.22	3
0.74	0.75	0.58	0.47	0.5	0.0	0.4	0.35	6
0.8	0.73	0.47	0.19	0.5	0.0	0.49	0.22	4
0.46	0.46	0.56	0.12	0.5	0.0	0.55	0.22	1
0.45	0.42	0.52	0.2	0.5	0.0	0.5	0.25	3
0.39	0.39	0.59	0.25	0.5	0.0	0.45	0.22	3
0.32	0.48	0.49	0.17	0.5	0.0	0.47	0.22	2
0.33	0.28	0.52	0.15	0.5	0.0	0.51	0.86	2
0.5	0.52	0.59	0.3	0.5	0.0	0.51	0.35	2
0.57	0.53	0.53	0.34	0.5	0.0	0.53	0.22	1
0.5	0.47	0.45	0.14	0.5	0.0	0.53	0.32	7
0.61	0.46	0.54	0.11	0.5	0.0	0.47	0.22	3
0.57	0.49	0.61	0.26	0.5	0.0	0.52	0.22	2
0.86	0.78	0.34	0.15	0.5	0.0	0.53	0.22	6
0.51	0.48	0.58	0.22	0.5	0.0	0.5	0.28	2
0.74	0.74	0.51	0.27	0.5	0.0	0.5	0.22	5
0.59	0.67	0.54	0.19	0.5	0.0	0.48	0.6	2
0.3	0.37	0.4	0.45	0.5	0.0	0.48	0.41	7
0.36	0.48	0.5	0.13	0.5	0.0	0.49	0.6	2
0.6	0.4	0.59	0.18	0.5	0.0	0.48	0.22	3
0.39	0.45	0.75	0.17	0.5	0.0	0.51	0.22	3
0.47	0.53	0.48	0.51	0.5	0.0	0.54	0.22	1
0.74	0.82	0.46	0.24	0.5	0.0	0.5	0.31	5
0.74	0.89	0.32	0.24	0.5	0.0	0.54	0.32	4
0.38	0.56	0.38	0.16	0.5	0.0	0.53	0.22	7
0.42	0.32	0.5	0.21	0.5	0.0	0.51	0.22	2
0.71	0.51	0.49	0.23	0.5	0.0	0.3	0.32	6
0.57	0.51	0.58	0.22	0.5	0.0	0.51	0.22	2
0.51	0.61	0.5	0.23	0.5	0.0	0.52	0.61	2
0.44	0.5	0.55	0.24	0.5	0.0	0.48	0.22	2
0.23	0.3	0.58	0.22	0.5	0.0	0.48	0.27	2
0.58	0.6	0.43	0.12	0.5	0.0	0.55	0.22	7
0.5	0.48	0.48	0.23	0.5	0.0	0.53	0.68	3
0.36	0.58	0.35	0.24	0.5	0.0	0.44	0.22	7
0.56	0.35	0.47	0.41	0.5	0.0	0.5	0.22	3
0.58	0.58	0.58	0.49	0.5	0.0	0.49	0.26	1
0.6	0.64	0.56	0.36	0.5	0.0	0.46	0.27	3
0.65	0.61	0.39	0.3	0.5	0.0	0.57	0.28	7
0.49	0.42	0.56	0.55	0.5	0.0	0.42	0.25	1
0.63	0.56	0.45	0.58	0.5	0.0	0.51	0.22	1
0.46	0.14	0.36	0.21	0.5	0.0	0.5	0.25	7
0.38	0.48	0.59	0.22	0.5	0.0	0.46	0.22	3
0.38	0.51	0.75	0.17	0.5	0.0	0.55	0.22	3
0.6	0.59	0.45	0.23	0.5	0.0	0.55	0.22	1
0.45	0.48	0.63	0.67	0.5	0.0	0.48	0.22	1
0.8	0.69	0.53	0.33	0.5	0.0	0.51	0.22	6
0.4	0.44	0.49	0.47	0.5	0.0	0.49	0.27	2
0.57	0.37	0.43	0.27	0.5	0.0	0.53	0.28	2
0.46	0.54	0.71	0.15	0.5	0.0	0.59	0.22	1
0.43	0.28	0.41	0.32	0.5	0.0	0.52	0.22	7
0.72	0.61	0.45	0.3	0.5	0.0	0.54	0.25	1
0.69	0.6	0.5	0.31	0.5	0.0	0.55	0.22	3
0.37	0.3	0.62	0.43	0.5	0.0	0.44	0.39	3
0.38	0.5	0.37	0.26	0.5	0.0	0.43	0.22	7
0.61	0.46	0.44	0.47	0.5	0.0	0.5	0.37	2
0.57	0.53	0.6	0.28	0.5	0.0	0.52	0.45	2
0.62	0.43	0.49	0.29	0.5	0.0	0.5	0.27	3
0.51	0.48	0.51	0.43	0.5	0.0	0.49	0.22	1
0.5	0.54	0.53	0.54	0.5	0.0	0.51	0.27	1
0.44	0.53	0.43	0.17	0.5	0.0	0.54	0.75	2
0.58	0.47	0.54	0.11	0.5	0.0	0.51	0.26	2
0.47	0.38	0.58	0.19	0.5	0.0	0.57	0.22	3
0.43	0.47	0.47	0.18	0.5	0.0	0.47	0.22	3
0.54	0.52	0.54	0.2	0.5	0.0	0.55	0.25	2
0.77	0.87	0.47	0.37	0.5	0.0	0.48	0.22	5
0.37	0.53	0.6	0.19	0.5	0.5	0.42	0.22	9
0.74	0.72	0.5	0.28	0.5	0.0	0.49	0.27	5
0.53	0.42	0.58	0.29	0.5	0.0	0.5	0.22	1
0.32	0.6	0.48	0.13	0.5	0.0	0.53	0.22	2
0.42	0.31	0.62	0.12	0.5	0.0	0.4	0.22	1
0.52	0.62	0.54	0.19	0.5	0.0	0.5	0.22	1
0.5	0.58	0.46	0.46	0.5	0.0	0.46	0.22	1
0.75	0.67	0.51	0.29	0.5	0.0	0.52	0.36	1
0.66	0.52	0.52	0.44	0.5	0.0	0.56	0.27	1
0.56	0.42	0.52	0.14	0.5	0.0	0.51	0.22	3
0.62	0.6	0.54	0.22	0.5	0.0	0.54	0.27	3
0.49	0.48	0.51	0.21	0.5	0.0	0.53	0.22	2
0.67	0.62	0.54	0.43	0.5	0.0	0.53	0.22	1
0.41	0.42	0.23	0.16	0.5	0.0	0.4	0.22	7
0.47	0.59	0.56	0.09	0.5	0.0	0.5	0.22	3
0.64	0.56	0.52	0.17	0.5	0.0	0.54	0.47	2
0.55	0.5	0.66	0.36	0.5	0.0	0.49	0.22	1
0.54	0.55	0.55	0.4	0.5	0.0	0.53	0.22	3
0.6	0.56	0.47	0.2	0.5	0.0	0.5	0.38	2
0.52	0.31	0.56	0.16	0.5	0.0	0.55	0.22	2
0.48	0.47	0.59	0.41	0.5	0.0	0.56	0.27	2
0.71	0.56	0.39	0.27	0.5	0.0	0.52	0.22	6
0.45	0.45	0.5	0.6	0.5	0.0	0.49	0.22	1
0.55	0.38	0.64	0.42	0.5	0.0	0.47	0.22	1
0.46	0.59	0.38	0.12	0.5	0.0	0.5	0.22	7
0.53	0.5	0.54	0.56	0.5	0.0	0.49	0.41	1
0.46	0.54	0.59	0.41	0.5	0.0	0.53	0.21	3
0.57	0.43	0.52	0.3	0.5	0.0	0.37	0.11	3
0.32	0.45	0.44	0.2	0.5	0.0	0.55	0.33	2
0.4	0.36	0.32	0.16	0.5	0.0	0.51	0.27	8
0.4	0.42	0.71	0.21	0.5	0.0	0.54	0.32	3
0.45	0.4	0.56	0.14	0.5	0.0	0.54	0.22	3
0.27	0.51	0.47	0.35	0.5	0.0	0.49	0.28	2
0.47	0.5	0.6	0.63	0.5	0.0	0.38	0.16	3
0.44	0.34	0.61	0.13	0.5	0.0	0.49	0.26	2
0.34	0.48	0.47	0.19	0.5	0.0	0.5	0.3	2
0.59	0.56	0.5	0.48	0.5	0.0	0.46	0.22	1
0.45	0.38	0.64	0.14	0.5	0.0	0.54	0.22	1
0.37	0.44	0.51	0.56	0.5	0.0	0.5	0.38	2
0.35	0.4	0.44	0.25	0.5	0.0	0.53	0.57	2
0.59	0.46	0.55	0.17	0.5	0.0	0.52	0.25	3
0.74	0.72	0.5	0.28	0.5	0.0	0.5	0.27	5
0.6	0.5	0.57	0.25	0.5	0.0	0.41	0.26	3
0.77	0.72	0.48	0.26	0.5	0.0	0.51	0.22	5
0.49	0.67	0.5	0.28	0.5	0.0	0.43	0.22	2
0.51	0.59	0.46	0.13	0.5	0.0	0.48	0.22	1
0.46	0.62	0.46	0.54	0.5	0.0	0.51	0.27	1
0.62	0.41	0.52	0.17	0.5	0.0	0.48	0.22	2
0.45	0.36	0.5	0.19	0.5	0.0	0.53	0.7	2
0.64	0.57	0.57	0.27	0.5	0.0	0.37	0.22	3
0.61	0.54	0.54	0.38	0.5	0.0	0.54	0.29	1
0.58	0.38	0.4	0.21	0.5	0.0	0.5	0.22	3
0.39	0.81	0.35	0.28	0.5	0.0	0.51	0.45	7
0.35	0.33	0.48	0.42	0.5	0.0	0.47	0.43	3
